{
  "baseUrl": "https://ultimateqa.com",
  "chromeWebSecurity": false,
  "blockHosts": [
    "www.facebook.com",
    "www.google-analytics.com",
    "api.segment.io",
    "cdn.segment.com",
    "trk.kissmetrics.com"
  ],
  "projectId": "gq8aub"
}
